[
  {
    "id": "bce0dde0-5eee-0137-c042-38ca3ad2633d",
    "description": "Write a JSON file containing to-do items",
    "completed": true,
    "notes": "Technically, this work was not completed when I wrote this, though it is completed now",
    "created_on": "2019-05-22"
  },
  {
    "id": "f42d74e8-6fd8-4eb1-a4fe-af1c1314573b",
    "description": "Add a third object to this JSON file",
    "completed": false,
    "notes": "",
    "created_on": "2019-05-22"
  }
]